{
  "functions": {
    "source": "functions"
  },
  "hosting": {
    "public": "dist/spa",
    "ignore": [
      "firebase.json",
      "**/.*",
      "**/node_modules/**"
    ],
    "rewrites": [
      {
        "source": "**",
        "destination": "/index.html"
      }
    ]
  }
}
